﻿{
    "defaultMsg": "Пожалуйста, добавьте сообщение об ошибке для {0}",
    "validEmail": "Please enter a valid email address",
    "email": "Пожалуйста, введите правильный адрес электронной почты",
    "minlength": "Пожалуйста, введите не менее {0} символов",
    "maxlength": "Вы ввели больше чем {0} символов",
    "min": "Пожалуйста, введите число не менее {0}",
    "max": "Пожалуйста, введите число не более {0}",
    "required": "Это поле обязательно",
    "date": "Пожалуйста, введите правильную дату",
    "pattern": "Invalid value",
    "number": "Пожалуйста, введите правильное число",
    "url": "Пожалуйста, введите правильный URL в формате http(s)://www.google.com",
    "emailExists": "Уже имеется акканут с этим адресом электронной почты",
    "emailExists": "Det finns redan ett konto med denna e-postadress",
    "compareTo": "Must match the previous entry",
    "validDate":"please enter a valid date",
    "lowerThan":"min must be lower than max"
}