{
    "defaultMsg": "Please add error message for {0}",
    "validEmail": "Please enter a valid email address",
    "email": "Please enter a valid email address",
    "minlength": "Please enter at least {0} characters",
    "maxlength": "You have entered more than the maximum {0} characters",
    "min": "Please enter the minimum number of {0}",
    "max": "Please enter the maximum number of {0}",
    "required": "This field is required",
    "date": "Please enter a valid date",
    "pattern": "Invalid value",
    "number": "Please enter a valid number",
    "url": "Please enter a valid URL in the format of http(s)://www.google.com",
    "emailExists": "이미 이 이메일 주소로 가입된 계정이 있습니다.",
    "compareTo": "Must match the previous entry",
    "validDate":"please enter a valid date",
    "lowerThan":"min must be lower than max"
}